{
  "usesTypeScript": false,
  "usesCssModule": true,
  "cssPreprocessor": "scss",
  "testLibrary": "None",
  "component": {
    "default": {
      "path": "Header",
      "withStyle": true,
      "withTest": false,
      "withStory": false,
      "withLazy": false
    }
  }
}